﻿ranking;title;caption;author;publication;rating;summary
1;Kingpin;How One Hacker Took Over the Billion-Dollar Cybercrime Underground;Kevin Poulsen;2011;4.66;Former hacker Kevin Poulsen has, over the past decade, built a reputation as one of the top investigative reporters on the cybercrime beat. In Kingpin, he pours his unmatched access and expertise into book form for the first time, delivering a gripping cat-and-mouse narrative—and an unprecedented view into the twenty-first century’s signature form of organized crime.
2;Hacking;The Art of Exploitation, 2nd Edition;Jon Erickson;2008;4.47;Hacking is the art of creative problem solving, whether that means finding an unconventional solution to a difficult problem or exploiting holes in sloppy programming. Many people call themselves hackers, but few have the strong technical foundation needed to really push the envelope.
3;Hacking;Computer Hacking, Security Testing,Penetration Testing, and Basic Secur;Gary Hall, Erin Watson;2016;4.7;Are you interested in learning about how to hack systems?
4;Hacking School Discipline;9 Ways to Create a Culture of Empathy and Responsibility Using Restorative Justice;Nathan Maynard, Brad Weinstein;2019;4.62;Eliminate old-school punishments and create a community of responsible, productive learners
5;Hacking University;Learn Python Computer Programming from Scratch & Precisely Learn How The Linux Operating Command Line Works 2 Manuscript Bundle: ... Linux;Isaac D. Cody;2016;4.6;This is a 2 book bundle related to starting to MASTER Python Programming language and DOMINATING the Linux Operating System
6;Penetration Testing;A Hands-On Introduction to Hacking;Georgia Weidman;2014;4.51;Penetration testers simulate cyber attacks to find security weaknesses in networks, operating systems, and applications. Information security experts worldwide use penetration techniques to evaluate enterprise defenses.
7;Hacking Growth;How Today's Fastest-Growing Companies Drive Breakout Success;Sean Ellis, Morgan Brown;2017;4.97;The definitive playbook by the pioneers of Growth Hacking, one of the hottest business methodologies in Silicon Valley and beyond.
8;Black Hat Python;Python Programming for Hackers and Pentesters;Justin Seitz;2014;4.44;When it comes to creating powerful and effective hacking tools, Python is the language of choice for most security analysts. But just how does the magic happen?
9;Computer Hacking Beginners Guide;How to Hack Wireless Network, Basic Security and Penetration Testing, Kali Linux, Your First Hack;Alan T. Norman;2018;4.55;This book will teach you how you can protect yourself from most common hacking attacks -- by knowing how hacking actually works! After all, in order to prevent your system from being compromised, you need to stay a step ahead of any criminal hacker. You can do that by learning how to hack and how to do a counter-hack
10;Hacking;The Underground Guide to Computer Hacking, Including Wireless Networks, Security, Windows, Kali Linux and Penetration Testing;Abraham K White;2017;4.68;Learn to hack!
11;The Basics of Hacking and Penetration Testing, Second Edition;Ethical Hacking and Penetration Testing Made Easy;Patrick Engebretson;2013;4.51;The Basics of Hacking and Penetration Testing, 2nd Ed. serves as an introduction to the steps required to complete a penetration test or perform an ethical hack from beginning to end. No prior hacking experience is needed. You will learn how to properly utilize and interpret the results of modern day hacking tools, which are required to complete a penetration test. Tool coverage includes Backtrack and Kali Linux, Google reconnaissance, MetaGooFil, DNS interrogation, Nmap, Nessus, Metasploit, the Social Engineer Toolkit (SET) , w3af, Netcat, post exploitation tactics, the Hacker Defender rootkit, and more.  ...more
12;Hash Crack;Password Cracking Manual;Joshua Picolet;2017;4.57;The Hash Crack: Password Cracking Manual v2.0 is an expanded reference guide for password recovery (cracking) methods, tools, and analysis techniques. A compilation of basic and advanced techniques to assist penetration testers and network security professionals evaluate their organization's posture. The Hash Crack manual contains syntax and examples for the most popular cracking and analysis tools and will save you hours of research looking up tool usage. It also includes basic cracking knowledge and methodologies every security professional should know when dealing with password attack capabilities.  ...more
13;Hacking;Computer Hacking Beginners Guide How to Hack Wireless Network, Basic Security and Penetration Testing, Kali Linux, Your First Hack;Alan T. Norman;2016;4.54;This book will teach you how you can protect yourself from most common hacking attacks -- by knowing how hacking actually works! After all, in order to prevent your system from being compromised, you need to stay a step ahead of any criminal hacker. 
14;Hackers and Painters;Big Ideas from the Computer Age;Paul Graham;2004;4.41;The computer world is like an intellectual Wild West, in which you can shoot anyone you wish with your ideas, if you're willing to risk the consequences.  --from Hackers & Painters: Big Ideas from the Computer Age, by Paul Graham
15;Hacking;Basic Security, Penetration Testing and How to Hack;Isaac Sharpe;2015;4.51;Do You Want To Learn How To Hack? Have you always wanted to hack? Do you want to learn more about hacking? Are you interested in the basics of hacking and successful at it? . This easy guide will help transform and increase your hacking skill set. You'll be excited to see your skills improve drastically and effectively whenever your hacking. Within this book's pages, you'll find the answers to these questions and more.  ...more
16;Hacking;How to hack, Penetration testing Hacking book, Step-by-Step implementation and demonstration guide;Alex Wagner;2017;4.47;"This book will focus on some of the most dangerous hacker tools that are favourite of both, White Hat and Black Hat hackers. 
Beginning with some of the fundamentals of networking, and technologies that are vital to be aware for every hacker.
It will cover some studying techniques that can be used in order to be able to follow today's fast growing technologies, and then will recommend additional study materials and what certification path you should be aiming in order to become an IT Professional."
17;Linux;;Brian Hatch, James B. Lee, George Kurtz;2001;4.42;Tighten holes and maintain security on your Linux system! From one of the authors of the international best-seller, Hacking Exposed: Network Security Secrets & Solutions, comes a must-have security handbook for anyone running Linux. 
18;Hacking Mathematics;10 Problems That Need Solving;Denis Sheeran;2018;4.63;What if everyone of your students actually loved math?
19;Hacking Electronics;Learning Electronics with Arduino and Raspberry Pi, Second Edition;Simon Monk;2017;4.53;This intuitive DIY guide shows how to wire, disassemble, tweak, and re-purpose household devices and integrate them with your Raspberry Pi and Arduino inventions. Packed with full-color illustrations, photos, and diagrams, Hacking Electronics: Learning Electronics with Arduino and Raspberry Pi, Second Edition, features fun, easy-to-follow projects. You’ll discover how to build an Internet-controlled hacked electric toy, ultrasonic rangefinder, remote-controlled robotic rover, audio amp, slot car brakes and headlights―even a smart card reader! 
20;Hacking Linux Exposed, Second Edition;;Brian Hatch, James Lee;2002;4.42;Tighten holes and maintain security on your Linux system! From the publisher of the international best-seller, Hacking Exposed: Network Security Secrets & Solutions, comes this must-have security handbook for anyone running Linux. This up-to-date edition shows you how to think like a Linux hacker in order to beat the Linux hacker. You'll get detailed information on Linux-specific hacks, both internal and external, and how to stop them.
21;Hacking;;Walter Spivak;2012;4.42;In this book, you will learn several skills and techniques that you need to acquire in order to become a successful computer hacker. Hacking is a term that has been associated with negativity over the years.
22;Hacking Darwin;Genetic Engineering and the Future of Humanity;Jamie Metzl;2019;4.7;A gifted and thoughtful writer, Metzl brings us to the frontiers of biology and technology, and reveals a world full of promise and peril. ― Siddhartha Mukherjee MD, New York Times bestselling author of The Emperor of All Maladies and The Gene
23;Kali Linux;An Ethical Hacker's Cookbook: End-to-end penetration testing solutions;Himanshu Sharma;2017;4.63;"Practical recipes to conduct effective penetration testing using the powerful Kali Linux
Leverage tools like Metasploit, Wireshark, Nmap, and many more to detect vulnerabilities with ease
Confidently perform networking and application attacks using task-oriented recipes."
24;Hacking the Writing Workshop;Redesign with Making in Mind;Angela Stockman;2018;4.61;Writing Workshops are About Writers, Not Just Writing
25;Hacked;Kali Linux and Wireless Hacking Ultimate Guide With Security and Penetration Testing Tools, Practical Step by Step Computer Hacking Book;Alan T. Norman;2018;4.59;Hacking book is intended to serve as an intermediate-level guide to some common penetration testing tools and skills – particularly those of wireless hacking and of maintaining anonymity. The book concentrates more on practical execution, and provides some step-by-step procedures for installing essential platforms and tools, as well as the theory behind some basic attacks. Gain the ability to do ethical hacking and penetration testing by taking this hacking book!  ...more
26;Think Like a Hacker;A Sysadmin's Guide to Cybersecurity;Michael J. Melone;2017;4.61;"Targeted attack and determined human adversaries (DHA) have changed the information security game forever. Writing secure code is as important as ever; however, this satisfies only one piece of the puzzle. Effective defense against targeted attack requires IT professionals to understand how attackers use - and abuse - enterprise design to their advantage. Learn how advanced attackers break into networks. Understand how attackers use concepts of access and authorization to jump from one computer to the next. Dive into how and why attackers use custom implants and backdoors inside an enterprise.  ...more"
27;BackTrack 5 Wireless Penetration Testing Beginner's Guide;;Vivek Ramachandran;2011;4.39;Written in Packt's Beginner's Guide format, you can easily grasp the concepts and understand the techniques to perform wireless attacks in your lab. Every new attack is described in the form of a lab exercise with rich illustrations of all the steps associated. You will practically implement various attacks as you go along. If you are an IT security professional or a security consultant who wants to get started with wireless testing with Backtrack, or just plain inquisitive about wireless security and hacking, then this book is for you. The book assumes that you have familiarity with Backtrack and basic wireless concepts.
28;Gray Hat Hacking The Ethical Hacker's Handbook, Fourth Edition;;Daniel Regalado, Shon Harris, Allen Harper, Chris Eagle;2015;4.38;Fortify your network and avert digital catastrophe with proven strategies from a team of security experts. Completely updated and featuring 12 new chapters, Gray Hat Hacking: The Ethical Hacker's Handbook, Fourth Edition explains the enemy’s current weapons, skills, and tactics and offers field-tested remedies, case studies, and ready-to-deploy testing labs. Find out how hackers gain access, overtake network devices, script and inject malicious code, and plunder Web applications and browsers.  ...more
29;Programming Linux Hacker Tools Uncovered;Exploits, Backdoors, Scanners, Sniffers, Brute-Forcers, Rootkits;Ivan Sklyarov;2006;4.39;Uncovering the development of the hacking toolset under Linux, this book teaches programmers the methodology behind hacker programming techniques so that they can think like an attacker when developing a defense. Analyses and cutting-edge programming are provided of aspects of each hacking item and its source code—including ping and traceroute utilities, viruses, worms, Trojans, backdoors, exploits (locals and remotes), scanners (CGI and port), smurf and fraggle attacks, and brute-force attacks.  ...more
30;Basic Security Testing with Kali Linux 2;;Daniel W. Dieterle;2016;4.55;In Basic Security Testing with Kali Linux 2, you will learn basic examples of how hackers find out information about your company, find weaknesses in your security and how they gain access to your system
31;Python, Hacking & Raspberry Pi 3;The No-Nonsense Limited Bundle: Learn Python, Hacking And Raspberry Pi Programming Within 36 Hours!;Cyberpunk University;2017;4.39;What if you have the skills to program the next Facebook or Instagram? Can you imagine working for Fortune 500 companies and protect them from cyber-attacks? How about, building your own Raspberry PI Personal Assistant, make a files storage server or write your own games. Sounds good, right?! Programmers are the new Rockstars of this century, PERIOD! The demand for programmers now is higher than ever. With this 2 book bundle we will teach you the right skillset to start your programming journey.  ...more
32;Hacking;World Class Hacking, Python and Cyber Security Strategies For Up-and-Coming Hackers;Hacking Studios;2017;4.43;Imagine Yourself… Programming like a hacker, landing a software development job at Google and make a ton of money.
33;Coding Freedom;The Ethics and Aesthetics of Hacking;E. Gabriella Coleman;2012;4.41;Who are computer hackers? What is free software? And what does the emergence of a community dedicated to the production of free and open source software--and to hacking as a technical, aesthetic, and moral project--reveal about the values of contemporary liberalism? Exploring the rise and political significance of the free and open source software (F/OSS) movement in the United States and Europe, Coding Freedom details the ethics behind hackers' devotion to F/OSS, the social codes that guide its production, and the political struggles through which hackers question the scope and direction of copyright and patent law.  ...more
34;Hacking Secret Ciphers with Python;A beginner's guide to cryptography and computer programming with Python;Al Sweigart;2013;4.5;Hacking Secret Ciphers with Python not only teaches you how to write in secret ciphers with paper and pencil. This book teaches you how to write your own cipher programs and also the hacking programs that can break the encrypted messages from these ciphers. Unfortunately, the programs in this book won’t get the reader in trouble with the law (or rather, fortunately) but it is a guide on the basics of both cryptography and the Python programming language.  ...more
35;Hacking Exposed;Malware & Rootkits Secrets & Solutions;Michael A. Davis, Sean M. Bodmer, Aaron LeMasters;2009;4.35;"A harrowing guide to where the bad guys hide, and how you can find them. --Dan Kaminsky, Director of Penetration Testing, IOActive ""An amazing resource. It is timely, focused, and what we need to better understand and defend against one of the greatest cyber threats we face."" --From the Foreword by Lance Spitzner, President of the Honeynet Project Don't let another machine become a zombie in the malware army"
36;Hacking;The Ultimate Beginners Guide;Max Green;2015;4.42;The Ultimate Computer Hacking Guide
37;Hacking Early Learning;10 Building Blocks to Success in Pre-K-3 That All Teachers and School Leaders Should Know;Jessica Cabeen;2018;4.61;School readiness, closing achievement gaps, partnering with families, and innovative learning are just a few of the reasons the early learning years are the most critical years in a child’s life. In what ways have schools lost the critical components of early learning -- preschool through third grade -- and how can we intentionally bring those ideas and instructional strategies back?
38;Hacking Project Based Learning;10 Easy Steps to Pbl and Inquiry in the Classroom;Ross Cooper, Erin Murphy;2017;4.59;Hacking Project Based Learning is a classroom essential
39;The Dark Side of the Hacking World;What You Need to Know to Guard Your Precious Assets and Remain Safe;Mike Mason;2015;4.41;A Guide to the Hacking Underworld You’ve Never Seen Before! Hackers have always been a closed, secretive circle, wary of infiltrators and keeping their secrets completely hidden from the public eye….until now! This book blows the lid open on the dark side of the hacking world, bringing all of the shadowy secrets, tools of the trade, malicious methods, and high-stakes multi-millionaire lifestyles of hackers out into the open! Each chapter gives you unprecedented access to the cunning tricks, psychological manipulation, and malware that hackers could be using against you RIGHT NOW!  ...more
40;Kali Linux Wireless Penetration Testing;Beginner's Guide: Learn to penetrate Wi-Fi and wireless networks to secure your system from vulnerabilities;Vivek Ramachandran, Cameron Buchanan;2015;4.57;"Learn wireless penetration testing with Kali Linux, the latest iteration of Backtrack
Detect hidden wireless networks and discover their names
Explore advanced Wi-Fi hacking techniques including rogue access point hosting and probe sniffing."
41;Mind Hacking;How to Rewire Your Brain to Stop Overthinking, Create Better Habits and Realize Your Life Goals;Jennifer Ferguson;2019;4.61;If You Want to Change Your Life to Stop Overthinking, Create Better Habits and Realize Your Life Goals, then Keep Reading...
42;Hacking with Kali Linux;A Step by Step Guide for you to Learn the Basics of CyberSecurity and Hacking;Mr. Ramon Nastase;2018;4.51;Ever wondered how a Hacker thinks? Or how you could become a Hacker?
43;Penetration Testing with Raspberry Pi;;Joseph Muniz, Aamir Lakhani;2015;4.4;"Learn how to turn a Raspberry Pi into a Kali Linux hacking toolkit for onsite, physical, and remote penetration testing
Understand the capabilities, limitations, and features of Kali Linux on Raspberry Pi"
44;Hands-On Ethical Hacking and Network Defense;;Michael T. Simpson, Nicholas Antill;2016;4.43;Cyber-terrorism and corporate espionage are increasingly common and devastating threats, making trained network security professionals more important than ever. This timely text helps you gain the knowledge and skills to protect networks using the tools and techniques of an ethical hacker. The authors begin by exploring the concept of ethical hacking and its practitioners, explaining their importance in protecting corporate and government data from cyber attacks. The text then provides an in-depth guide to performing security testing against computer networks, covering current tools and penetration testing methodologies.
45;Hacking Wireless Networks;The ultimate hands-on guide;Mr Andreas Kolokithas;2015;4.37;Are you tired of buying security books and at the end discover that they contain only theory and no practical examples at all? Do you want to setup your own hacking lab and learn through practice? If yes, then this is the book for you! Hacking Wireless Networks - The ultimate hands-on guide, is a book written for people who seek to practice the techniques of assessing the security of wireless infrastructures. ...more
46;Hacking Exposed 7;Network Security Secrets and Solutions;Stuart McClure, Joel Scambray, George Kurtz;2012;4.42;"The latest tactics for thwarting digital attacks “Our new reality is zero-day, APT, and state-sponsored attacks. Today, more than ever, security professionals need to get into the hacker’s mind, methods, and toolbox to successfully deter such relentless assaults. This edition brings readers abreast with the latest attack vectors and arms them for these continually evolving threats.” --Brett Wahlin, CSO, Sony Network Entertainment “Stop taking punches--let’s change the game; it’s time for a paradigm shift in the way we secure our networks, and Hacking Exposed 7 is the playbook for bringing pain to our adversaries. ...more"
47;Hacking For Dummies );;Kevin Beaver;2018;4.46;In order to outsmart a would-be hacker, you need to get into the hacker’s mindset. And with this book, thinking like a bad guy has never been easier. In Hacking For Dummies, expert author Kevin Beaver shares his knowledge on penetration testing, vulnerability assessments, security best practices, and every aspect of ethical hacking that is essential in order to stop a hacker in their tracks ...more
48;Kali Linux Cookbook;Second Edition: Effective penetration testing solutions;Corey P. Schultz, Bob Perciaccante;2017;4.55;Over 80 recipes to effectively test your network and boost your career in security
49;Hacking Questions;11 Answers That Create a Culture of Inquiry in Your Classroom;Connie Hamilton;2019;4.61;Do you need to ramp up your classroom questioning techniques?
50;Mastering Kali Linux for Advanced Penetration Testing;Second Edition: Secure your network with Kali Linux - the ultimate white hat hackers' toolkit;Vijay Kumar Velu;2017;4.59;A practical guide to testing your network's security with Kali Linux, the preferred choice of penetration testers and hackers.
51;How to Hack Like a GOD;Master the secrets of Hacking through real life scenarios;Sparc FLOW;2017;4.62;Follow me on a step-by-step hacking journey where we pwn a high-profile fashion company. From zero initial access to remotely recording board meetings, we will detail every custom script and technique used in this attack, drawn from real-life findings, to paint the most realistic picture possible.  ...more
52;Python Programming;Learn How To Program Python, With Hacking Techniques, Step By Step Guide, How To USe Python, Become And Expert Python Programmer!;Steven Giles;2017;4.42;Learn How To Program Like A Boss Using Python!
53;Hacking the Xbox;An Introduction to Reverse Engineering;Andrew Huang;;4.54;This hands-on guide to hacking begins with step-by-step tutorials on hardware modifications that teach basic hacking techniques as well as essential reverse engineering skills. The book progresses into a discussion of the Xbox security mechanisms and other advanced hacking topics, with an emphasis on educating the readers on the important subjects of computer security and reverse engineering. Hacking the Xbox includes numerous practical guides, such as where to get hacking gear, soldering techniques, debugging tips and an Xbox hardware reference guide ...more
54;Hacking the Hacker;Learn From the Experts Who Take Down Hackers;Roger A. Grimes;2017;4.42;Meet the world's top ethical hackers and explore the tools of the trade
55;Hacking Made Simple;Full Beginners Guide To Master Hacking;Project Syntax;2017;4.36;Learn Hacking Quick and Easy Without Feeling Overwhelmed You’ve been reading a lot on the internet about hacking and want to use it to your advantage? Imagine a couple of weeks from know you are penetration testing and setting up SQL injections. What if you had a mentor to teach you every detail to get up and running quick and fast? That’s exactly what we’ve created at Project Syntax! Project Syntax will guide you through every step of the process. We have years of programming experience under our belt and are ready to teach you how it’s done.  ...more
56;Hacking;Become a World Class Hacker, Hack Any Password, Program Or System With Proven Strategies and Tricks;Hacking Studios;2017;4.52;Imagine Yourself… Programming like a hacker, landing a software development job at Google and make a ton of money.
57;Hacking;WiFi Hacking, Wireless Hacking For Beginner's - Step by Step;John Smith;2016;4.43;Use These Techniques to Immediately Hack a Wi-Fi Today
58;Hacking;Hacking Practical Guide for Beginners;Jeff Simon;2016;4.12;This Book, Hacking Practical Guide for Beginners is a comprehensive learning material for all inexperienced hackers
59;Hacking;Hacking For Beginners Guide On How To Hack, Computer Hacking, And The Basics Of Ethical Hacking;Josh Thompsons;2017;4.58;Have You Ever Wanted To Be A Hacker? Do You Want To Take Your Hacking Skills To Next Level?
60;Hacking;Hack Your Competitor, Protect Yourself and Win The Game;Hacking Studios;2017;4.42;Imagine Yourself… Programming like a hacker, landing a software development job at Google and make a ton of money.
61;Hacking University Graduation Edition;4 Manuscripts : Hacking Computers, Mobile Devices, Apps, Game Consoles and ... & Linux;Isaac D. Cody;2016;4.5;The Complete Hacking University Series is here! Learn everything you need to know to dominate and ensure the skills needed to hack and learn 2 popular programming languages.
62;Python;The No BS Approach To Hacking and Python;Hacking Studios;2017;4.33;Imagine Yourself… Learn the best programming strategies and immediately outperform established hackers..
63;Hacking Wireless Access Points;Cracking, Tracking, and Signal Jacking;Jennifer Kurtz;2016;4.54;Hacking Wireless Access Points: Cracking, Tracking, and Signal Jacking provides readers with a deeper understanding of the hacking threats that exist with mobile phones, laptops, routers, and navigation systems. In addition, applications for Bluetooth and near field communication (NFC) technology continue to multiply, with athletic shoes, heart rate monitors, fitness sensors, cameras, printers, headsets, fitness trackers, household appliances, and the number and types of wireless devices all continuing to increase dramatically ...more
64;Hacking With Kali Linux;The Complete Beginner's Guide on Kali Linux and Hacking Tools. Includes Basic Security Testing with Kali Linux, Machine Learning, Tips and Tricks for Python Programming;Adam Bash;2019;4.23;If you want to learn the art of hacking, then keep reading...
65;Hacking Innovation;The New Growth Model from the Sinister World of Hackers;Josh Linkner;2017;4.62;Hackers are a global fascination with cybercrime representing our single biggest threat to national security. But putting their sinister motives aside, the dark underworld of hackers contains some of the most creative minds on the planet. ...more
66;Python;5 Manuscripts - Python for Beginners, Python Programming, Hacking With Python, Tor, Bitcoin;Joshua Welsh;2017;4.56;Do you want to learn about Python Programming? Do you want to learn how to use Python to Hack? Do you want to learn how to conceal your IP Address and block NSA Spying? Do you want to learn how to invest in the revolutionary cryptocurrency that is Bitcoin? If you answered yes, then this book is right for you! This book includes: - Python for Beginners - Python Programming - Hacking With Python - Tor - Bitcoin Limited-time offer! Get 5 books for the price of 2! Offer ends soon Scroll up and click that buy button right now!!! ...more
67;Hacking;The Fundamentals Of Hacking: A Complete Beginners Guide To Hacking Mastery.;Paul Jones;2017;4.43;Master Hacking Today Fast And Easily!!
68;Hacking the Internship Process;;Bill Hobbs, Zach Schleien;2017;4.57;Hacking the Internship Process is designed to maximize your internship application results. The authors provide a smart, innovative methodology that leads readers through every aspect of winning their dream internship. The book optimizes reader efficiency by combining the most modern technological tools with “hacks” proven to get results. Follow simple steps in the book to build a powerful referral network, reach out to future bosses, ace interviews, and much more.
69;Hacking;Hacking for beginners;Tim Barnes;2017;4.45;Hacking is something that most people have heard about, many people think they know about, and very few people actually know how it works. If you are ready to become a hacker, you will need to learn as much as you can about hacking. Hacking isn’t just putting a few lines of code into a computer and hoping for the best. It is about skills, knowledge and the wisdom to be able to use different codes for different purposes. It takes learning, training and practicing to be able to get to the point where you are ready to be the best hacker possible ...more
70;Hacking;"Noob to Cyberpunk; Easy Guide to Computer Hacking, Internet Security, Penetration Testing, Cracking, Sniffing, and Smart Phone Vulnerabilities";Steve Ora;2017;4.46;Actionable step by step guide to master the foundations of hacking quickly, even if you are a complete noob!
71;Hacking With Python;2 Manuscripts: Python and Hacking Guides;Jeff Simon;2017;4.45;2 Manuscripts: - Python Programming Beginner’s Guide - Hacking Practical Guide for Beginners Python Programming Beginner’s Guide This book contains proven steps and strategies on how to use Python to create programs. It shows you how to follow commands and deliver your desired output. This book also contains useful information regarding what Python is, its syntax as well as its functions. It also contains examples to help you understand the programming language better.  ...more
72;How to Hack Like a LEGEND;A hacker's tale breaking into a secretive offshore company;Sparc FLOW;2018;4.57;This is the story of a hacker who met his match while breaking into a company: machine learning, behavioral analysis, artificial intelligence... Most hacking tools simply crash and burn in such a hostile environment. What is a hacker to do when facing such a fully equipped opponent?
73;Computer Programming Languages;THE BLUEPRINT Learn The Basics Of Computer Programming;CyberPunk Architects;2017;4.5;Become A Programming Master By Learning These Fundamentals Languages Learning computer programming languages doesn’t have to be hard. We start with the basics and work up from there. By giving you the blueprint to computer programming you will learn all areas that you need to know to full understand just want it takes to become a computer programmer. Learn step by step how computer programming works
74;Raspberry Pi 3 & Hacking;2 Books in 1: THE BLUEPRINT: Everything You Need To Know;CyberPunk Architects;2017;4.27;Ever wonder how easy it is to hack into someone’s bank account info while surfing the net at your local Starbucks? Do you want something simple, which is easy to understand and you can do as a beginner? The Blueprint to Hacking and Raspberry Pi: A Beginners Guide to Everything You Need to Know to Get Started is the perfect book for you to get started with these computer topics and delivers everything you’ll need to get you started.  ...more
75;C++;Beginners Guide to Learn C++ Programming Fast and Hacking for Dummies, Vol. 5;Peter Hoffman, Mat Benton;2015;4.47;Beginners Guide to Learn C++ Programming Fast and Hacking for Dummies (c plus plus, C++ for beginners, programming computer, hacking, how to hack, hacking exposed)
76;Hacking;Hacking: How to Hack, Penetration testing Hacking Book, Step-by-Step implementation and demonstration guide Learn fast Wireless Hacking, ... methods and Black Hat Hacking;Alex Wagner;2017;4.31;"This book has 4 manuscripts: 1 - The Ultimate Beginners Guide to Hacking 
2 - The Ultimate Guide to Hacking using the most dangerous tools  
3 - The Ultimate Guide to Wireless Hacking using the best tools 
4 - The Ultimate Guide to the 17 Most Dangerous Hacking Attacks"
77;Hacking Tools For Computers;The Ultimate Guide To Have A Complete Overview on Linux, Including Linux Mint, Notions of Linux for Beginners, Wireless Networks, Penetrating Tests and Kali Linux;Adam Bash;2019;4.22;Do you want to Be a Hacker?
78;Hacking & Human-Computer Interaction;;Solis Tech;2016;4.54;Is hacking what you want to learn? Always wondered how one becomes a hacker? Does it interest you how hackers never seem to get caught?
79;Hacking Instructional Design;33 Extraordinary Ways to Create a Contemporary Curriculum;Michael Fisher, Elizabeth Fisher;2018;4.59;Whether you want to make subtle changes to your instructional design or turn it on its head—Hacking Instructional Design provides a toolbox of options. Discover just-in-time tools to design, upgrade, or adapt your teaching strategies, lesson plans, and unit plans. Curriculum design experts Michael and Elizabeth Fisher show you how to:
80;Hacking + Malware + Raspberry Pi 2;;Solis Tech;2016;4.54;Is hacking what you want to learn? Always wondered how one becomes a hacker? Does it interest you how hackers never seem to get caught?
81;Robotics + Human-Computer Interaction + Hacking;;Kenneth Fraser;2016;4.54;Instead of jumping right into the instructions, this book will provide you first with all the necessary concepts that you need to learn in order to make the learning process a whole lot easier
82;Computer Hacking;The Ultimate Guide to Learn Computer Hacking and SQL;Matt Benton, Stephen Hoffman;2016;4.41;The Ultimate Guide to Learn Computer Hacking and SQL (computer programming, hacking, hacking exposed, hacking the system sql, database programming)
83;Hacking Chinese;A Practical Guide to Learning Mandarin;Olle Linge;2016;4.56;Learning Chinese can be frustrating and difficult, partly because it's very different from European languages. Following a teacher, textbook or language course is not enough. They show you the characters, words and grammar you need to become proficient in Chinese, but they don't teach you how to learn them!
84;Hacking Parenthood;10 Mantras You Can Use Daily to Reduce the Stress of Parenting;Kimberley Moran;2017;4.56;Parenting Just Got Simpler
85;Hacking For Beginners;The Ultimate Guide To Becoming A Hacker;Bob Bittex;2017;4.56;Are you interested in hacking? Always been curious about hacking but never did anything? Simply browsing and looking for a new awesome computer-related hobby? Then this book is for you! This book will teach the basics and details of hacking as well as the different types of hacking. The book is targeted towards beginners who have never hacked before and are not familiar with any of the terms in hacking.
86;Hacking & Tor;The Complete Beginners Guide To Hacking, Tor, & Accessing The Deep Web & Dark Web;Jack Jones;2017;4.44;Would You Like to Learn Exactly What It Means to be a Hacker & How To Protect Your Identity On The Web? - NOW INCLUDES FREE GIFTS! (see below for details)
87;Hacking;Learning to Hack. Cyber Terrorism, Kali Linux, Computer Hacking, PenTesting, & Basic Security.;Seth McKinnon;2017;4.48;"One of the most misunderstood concepts to do with computers and technology is hacking. For the most part, people refer to it as being highly illegal and unethical, when in reality this is not the case.
Yes, there are bad and evil hackers out there, but in order to prevent these hackers from becoming a real threat, you may want to learn how to better defend yourself in the processes a hacker may take to better protect yourself and your friends."
88;Cyber Security;A Starter Guide to Cyber Security for Beginners, Discover the Best Strategies for Defense Your Devices, Including Risk Management, ... and Information Security.;Kevin Kali;2019;4.23;Do you want to protect yourself from Cyber Security attack?
89;Learn Ethical Hacking from Scratch;Your stepping stone to penetration testing;Zaid Sabih;2018;4.6;Learn how to hack systems like black hat hackers and secure them like security experts
90;Hacking Supplier Diversity;Cracking the Code for the Business Case: Revenue Generation, Economic Impact, ROI;Scott A Vowels PhD;2017;4.57;For over fifty years, proponents of supplier diversity have discussed the positive effect on revenue that comes from using underrepresented suppliers. The problem lies in proving such assertions. For far too long, contracting with businesses owned by women, minorities, and those identifying as LGBTQ has been viewed as a “feel-good” act of corporate citizenship—one that rarely survives the next economic downturn
91;CEH Certified Ethical Hacker All-in-One Exam Guide, Third Edition;;Matt Walker;2016;4.39;Inside, IT security expert Matt Walker discusses all of the tools, techniques, and exploits relevant to the CEH exam. Readers will find learning objectives at the beginning of each chapter, exam tips, end-of-chapter reviews, and practice exam questions with in-depth answer explanations.
92;Hacking Exposed Industrial Control Systems;ICS and SCADA Security Secrets & Solutions;Clint Bodungen, Bryan Singer, Aaron Shbeeb, Kyle Wilhoit;2016;4.43;This hands-on guide exposes the devious methods cyber threat actors use to compromise the hardware and software central to petroleum pipelines, electrical grids, and nuclear refineries. Hacking Exposed Industrial Control Systems: ICS and SCADA Security Secrets and Solutions shows, step-by-step, how to implement and maintain an ICS-focused risk mitigation framework that is targeted, efficient, and cost-effective. The book arms you with the skills necessary to defend against attacks that are debilitating―and potentially deadly.
93;Hacking;A Beginner's Guide to Learn and Master Ethical Hacking with Practical Examples to Computer, Hacking, Wireless Network, Cybersecurity and Penetration Test;Peter Bradley;2019;4.6;"Hacking With Kali Linux : A Comprehensive, Step-By-Step Beginner's Guide to Learn Ethical Hacking With Practical Examples to Computer Hacking, Wireless Network, Cybersecurity and Penetration Testing
Hacking: A Comprehensive, Step-By-Step Guide to Techniques and Strategies to Learn Ethical Hacking With Practical Examples to Computer Hacking, Wireless Network, Cybersecurity and Penetration Test
Are you fascinated by the idea of Hacking?"
94;Hacking for Beginners;Your Guide for Learning the Basics of Hacking and Kali Linux;Ramon Nastase;2018;4.41;Hacking and Security for anyone to understand!
95;Growth Hacking 101;What You Need To Know To Get Started;Heather Wilde;2018;4.54;From Community Engineering to Guerrilla Marketing, today's most successful Growth Hackers take a page from strategies of the past. Learn how Growth Hacking got its start, what it means and get some real-world tips on how you can apply these methods to any type of business. Everyone needs more traffic, every site needs to be seen by more people. The frustration is HOW? It seems like only a few years ago it was easy. to be found on the internet. NOW with over a billion published sites and over 500k site being launched DAILY you need more than just great content to be found, you need a plan.  ...more
96;Hacking;A Comprehensive, Step-By-Step Guide to Techniques and Strategies to Learn Ethical Hacking With Practical Examples to Computer Hacking, Wireless Network, Cybersecurity and Penetration Test;Peter Bradley;2019;4.56;As we become more and more reliant on wireless networks to live and work, learning how to protect your system has become vital, if only to save yourself from the pain of identity theft, of all the problems caused by having your system hacked and your data stolen
97;Hacking;"A Beginners Guide To Your First Computer Hack; Learn To Crack A Wireless Network, Basic Security Penetration Made Easy and Step By Step Kali Linux";Kevin White;2018;4.4;Hacking will demand your full dedication and interest and also a desire and a craving for knowledge and constant advancement. If your goal is to be a hacker, this is the book to start with!
98;Web Penetration Testing with Kali Linux;Third Edition: Explore the methods and tools of ethical hacking with Kali Linux;Gilberto Najera-Gutierrez, Juned Ahmed Ansari;2018;4.57;Build your defense against web attacks with Kali Linux, including command injection flaws, crypto implementation layers, and web application security holes
99;Hacking the Bomb;Cyber Threats and Nuclear Weapons;Andrew Futter;2018;4.54;Are nuclear arsenals safe from cyber-attack? Could terrorists launch a nuclear weapon through hacking? Are we standing at the edge of a major technological challenge to global nuclear order? These are among the many pressing security questions addressed in Andrew Futter's ground-breaking study of the cyber threat to nuclear weapons.
100;Learning By Practicing;Hack & Detect: Leveraging the Cyber Kill Chain for Practical Hacking and its Detection via Network Forensics;Nik Alleyne;2018;4.59;This book leverages the Cyber Kill Chain to teach you how to hack and detect, from a network forensics perspective. Thus lots of packet and log analysis!